<?xml version="1.0" encoding="UTF-8" standalone="no"?>
<svg
   xmlns:dc="http://purl.org/dc/elements/1.1/"
   xmlns:cc="http://creativecommons.org/ns#"
   xmlns:rdf="http://www.w3.org/1999/02/22-rdf-syntax-ns#"
   xmlns:svg="http://www.w3.org/2000/svg"
   xmlns="http://www.w3.org/2000/svg"
   xmlns:sodipodi="http://sodipodi.sourceforge.net/DTD/sodipodi-0.dtd"
   xmlns:inkscape="http://www.inkscape.org/namespaces/inkscape"
   version="1.1"
   x="0px"
   y="0px"
   viewBox="0 0 300 300"
   enable-background="new 0 0 512 512"
   xml:space="preserve"
   id="svg2"
   inkscape:version="0.91 r13725"
   sodipodi:docname="conditions.svg"
   width="300"
   height="300"><metadata
     id="metadata14"><rdf:RDF><cc:Work
         rdf:about=""><dc:format>image/svg+xml</dc:format><dc:type
           rdf:resource="http://purl.org/dc/dcmitype/StillImage" /><dc:title></dc:title></cc:Work></rdf:RDF></metadata><defs
     id="defs12" /><sodipodi:namedview
     pagecolor="#ffffff"
     bordercolor="#666666"
     borderopacity="1"
     objecttolerance="10"
     gridtolerance="10"
     guidetolerance="10"
     inkscape:pageopacity="0"
     inkscape:pageshadow="2"
     inkscape:window-width="1257"
     inkscape:window-height="708"
     id="namedview10"
     showgrid="false"
     inkscape:zoom="0.52149125"
     inkscape:cx="241.69427"
     inkscape:cy="171.42162"
     inkscape:window-x="0"
     inkscape:window-y="0"
     inkscape:window-maximized="0"
     inkscape:current-layer="svg2" /><path
     style="fill:#ffffff;fill-rule:evenodd;stroke:none;stroke-width:1.0901686px;stroke-linecap:butt;stroke-linejoin:miter;stroke-opacity:1"
     d="m 0,0 0,300 300,0 0,-300 z"
     id="path4150"
     inkscape:connector-curvature="0"
     sodipodi:nodetypes="ccccc" /><path
     d="m 217.00189,95.00261 c -11.32174,0 -20.5075,9.17517 -20.5075,20.49725 0,9.11091 5.94918,16.83341 14.17379,19.50396 l 0,41.98746 c 0,12.58233 -4.90257,24.40618 -13.79986,33.29287 -8.89694,8.89694 -20.72113,13.79985 -33.30346,13.79985 -12.58267,0 -24.41678,-4.90291 -33.31406,-13.79985 -8.45943,-8.44883 -13.29774,-19.55728 -13.75712,-31.44505 22.60108,-3.38596 39.92566,-22.88992 39.92566,-46.43098 l 0,-65.272508 0,-4.635612 -26.84088,0 0,16.88707 13.42557,0 0,53.02105 c 0,8.96155 -3.49295,17.37825 -9.82666,23.72257 -6.34466,6.33371 -14.76136,9.827 -23.72223,9.827 -8.95129,0 -17.377902,-3.49329 -23.711963,-9.827 -6.33406,-6.34501 -9.826664,-14.76171 -9.826664,-23.72257 l 0,-53.02105 13.415316,0 0,-16.88707 -26.830289,0 0,69.90812 c 0,23.76529 17.666392,43.41862 40.57716,46.52703 1.02543,32.51354 27.70669,58.56485 60.4865,58.56485 33.17529,0 60.10197,-26.6922 60.50735,-59.77144 l 0.0106,0 0,-42.98144 c 7.82914,-2.88418 13.41531,-10.41423 13.41531,-19.2476 3.5e-4,-11.32174 -9.17448,-20.49691 -20.49656,-20.49691 z m 0.37394,31.45599 c -6.05616,0 -10.95873,-4.90257 -10.95873,-10.95874 0,-6.05617 4.90257,-10.95908 10.95873,-10.95908 6.04592,0 10.95942,4.90257 10.95942,10.95908 3.4e-4,6.05651 -4.91384,10.95874 -10.95942,10.95874 z"
     id="path4"
     inkscape:connector-curvature="0"
     style="fill:#e08813;fill-opacity:1" /></svg>